0	569.914916992188
60.6558443248347	569.011962890625
121.311688649669	568.583129882813
181.967532974504	568.150817871094
242.623377299339	567.718444824219
303.279221624173	567.2861328125
363.935065949008	567.434509277344
424.590910273843	567.214294433594
485.246754598677	567.051635742188
